========================= Main process ==========================
2018-03-09T13:11:05.566Z: 
Fetch Errorrequest to http://127.0.0.1:8000/api/fixme failed, reason: net::ERR_CONNECTION_REFUSED

========================= Main process ==========================
2018-03-09T13:11:37.940Z: 
Fetch ErrorUnexpected token < in JSON at position 0

========================= Main process ==========================
2018-03-09T13:34:42.059Z: 
ENOENT: no such file or directory, open '/home/tharanga/Documents/SASEY/happyshare.lk/dev/photobook/templates/16/template.json'

========================= Main process ==========================
2018-03-09T13:55:35.100Z: 
Fetch ErrortemplateInfo is not defined

========================= Main process ==========================
2018-03-09T13:57:12.824Z: 
Fetch Error: ENOENT: no such file or directory, open '/home/tharanga/Documents/SASEY/happyshare.lk/dev/photobook/templates/16/template.json'

========================= Main process ==========================
2018-03-09T14:08:00.838Z: 
Fetch Error: $ is not defined

========================= Main process ==========================
2018-03-09T14:11:28.846Z: 
Fetch Error: downFileName is not defined

